@startuml Domain Model

package AddressAggregate {
	class "Address" as address {
	}

	package AddressValueObject {
		class "ZipCode" as zip {
			code
		}

		class "Street" as street {
			street
			doorNumber
		}

		class "City" as city {
			name
		}
	}
}

package ContactAggregate {
	class Contact {
		id
	}

	package ContactValueObject {
		class "Name" as name {
			firstName
			lastName
		}
	}
}



address "1" -up- "1" zip: has >
address "1" -up- "1" street: has >
address "1" - "1" city: has >
Contact "1" -up- "1" name: has >
Contact "1" -right- "1..*" address: has >


@enduml